<svg width="20" height="33" viewBox="0 0 20 33" fill="none" xmlns="http://www.w3.org/2000/svg">
<rect x="0.5" y="1" width="19" height="31" rx="9.5" stroke="#3C454F"/>
<rect x="9" y="7.5" width="2" height="7" rx="1" fill="#3C454F"/>
</svg>
