<svg width="22" height="22" viewBox="0 0 22 22" fill="none" xmlns="http://www.w3.org/2000/svg">
<path d="M4.87904 16.3342C3.66988 15.125 3.66988 13.1593 4.87904 11.9501L7.70746 9.12169L6.36396 7.77819L3.53553 10.6066C1.58392 12.5582 1.58392 15.7261 3.53553 17.6777C5.48715 19.6293 8.65499 19.6293 10.6066 17.6777L13.435 14.8493L12.0915 13.5058L9.2631 16.3342C8.05395 17.5433 6.08819 17.5433 4.87904 16.3342ZM8.48528 14.1422L14.1421 8.4853L12.7279 7.07108L7.07107 12.7279L8.48528 14.1422ZM10.6066 3.53555L7.77817 6.36398L9.12168 7.70748L11.9501 4.87905C13.1593 3.6699 15.125 3.6699 16.3342 4.87905C17.5433 6.0882 17.5433 8.05396 16.3342 9.26311L13.5057 12.0915L14.8492 13.435L17.6777 10.6066C19.6293 8.655 19.6293 5.48716 17.6777 3.53555C15.7261 1.58393 12.5582 1.58393 10.6066 3.53555Z" fill="#3C454F"/>
</svg>
